Intro to R – Quantitative Methods for Historians - HIKU8863
…
data

# A tibble: 1,000 × 21
   casen    no month     year forename surname sex     age born  countryb reside
   <dbl> <dbl> <chr>    <dbl> <chr>    <chr>   <chr> <dbl> <chr> <chr>    <chr> 
 1     1    17 january   1841 AGNES    M'INTY… fema…    24 pais… scotland colin…
 2     2    45 january   1841 CATHERI… CARLIN… fema…    30 irvi… scotland paisl…
 3     3    68 january   1841 JEAN     WRIGHT  fema…    17 pais… scotland paisl…
 4     4    91 february  1841 MARGRET  M'HAFF… fema…    18 glas… scotland paisl…
 5     5    93 february  1841 JANET    M'LEAN  fema…    25 cath… scotland strab…
 6     6   263 april     1841 ELIZA    DUNCAN  fema…    34 belf… ireland  paisl…
 7     7   280 april     1841 ANN      RYLEY   fema…    45 sligo ireland  glasg…
 8     8   299 april     1841 MARGRET  M'LEOD  fema…    40 gree… scotland green…
 9     9   300 april     1841 MARY     MILLAR… fema…    19 gree… scotland green…
10    10   310 april     1841 JEAN     M'KINL… fema…    29 glas… scotland pollo…
# ℹ 990 more rows
# ℹ 10 more variables: feet <dbl>, inches <dbl>, weight <dbl>, occup <chr>,
#   employed <chr>, literacy <chr>, marks <chr>, offence <chr>, sentence <chr>,
#   source <chr>

If you want to display more cases, you can use the function print(n = 15) and indicate the number of cases to be reported. Let’s pause for a moment to disect what the code below is doing. Notice first that it is crucial to indicate where the information you are asking for is coming from. Remember that we imported the Paisley data into the object name data. The pipe (|>) here basically takes this object and uses it as input in the next line of code, which uses the function print() to request listing the first 15 cases from that object. Alternatively, you can have a look at the last 20 cases by typing tail(20).

data |>  
  print(n = 15)

# A tibble: 1,000 × 21
   casen    no month     year forename surname sex     age born  countryb reside
   <dbl> <dbl> <chr>    <dbl> <chr>    <chr>   <chr> <dbl> <chr> <chr>    <chr> 
 1     1    17 january   1841 AGNES    M'INTY… fema…    24 pais… scotland colin…
 2     2    45 january   1841 CATHERI… CARLIN… fema…    30 irvi… scotland paisl…
 3     3    68 january   1841 JEAN     WRIGHT  fema…    17 pais… scotland paisl…
 4     4    91 february  1841 MARGRET  M'HAFF… fema…    18 glas… scotland paisl…
 5     5    93 february  1841 JANET    M'LEAN  fema…    25 cath… scotland strab…
 6     6   263 april     1841 ELIZA    DUNCAN  fema…    34 belf… ireland  paisl…
 7     7   280 april     1841 ANN      RYLEY   fema…    45 sligo ireland  glasg…
 8     8   299 april     1841 MARGRET  M'LEOD  fema…    40 gree… scotland green…
 9     9   300 april     1841 MARY     MILLAR… fema…    19 gree… scotland green…
10    10   310 april     1841 JEAN     M'KINL… fema…    29 glas… scotland pollo…
11    11   343 may       1841 AGNES    CURRIE… fema…    35 islay scotland paisl…
12    12   382 june      1841 ELLIZA   MUNN    fema…    18 john… scotland johns…
13    13   425 june      1841 SARAH    BLACK … fema…    36 glas… scotland kelvi…
14    57     3 january   1841 THOMAS   ROBERT… male     19 pais… scotland high …
15    58    19 january   1841 JOHN     MONTGO… male     24 some… england  barra…
# ℹ 985 more rows
# ℹ 10 more variables: feet <dbl>, inches <dbl>, weight <dbl>, occup <chr>,
#   employed <chr>, literacy <chr>, marks <chr>, offence <chr>, sentence <chr>,
#   source <chr>
…
