Case-Study 2: The State of the Union Presidential Speeches – Quantitative Methods for Historians - HIKU8863
…
# Install/load packages
install.packages("tidytext")
library(tidyverse)
library(tidytext)

# Importing the data
speeches <- read_csv("data/state-of-the-union-texts.csv")

Inspecting the data

Let’s start by having a first look at the data itself typing the name of the object we just created (speeches). As shown below, the contents of the tidyverse have been nicely structured into a data frame containing 4 columns (different pieces of information) and 235 rows (one for each speech).

speeches

# A tibble: 219 × 4
   President          Year Title                              Text              
   <chr>             <dbl> <chr>                              <chr>             
 1 George Washington  1790 First State of the Union Address   "['I embrace with…
 2 George Washington  1790 Second State of the Union Address  "['Fellow-Citizen…
 3 George Washington  1791 Third State of the Union Address   "['Fellow-Citizen…
 4 George Washington  1792 Fourth State of the Union Address  "['Fellow-Citizen…
 5 George Washington  1793 Fifth State of the Union Address   "['Fellow Citizen…
 6 George Washington  1794 Sixth State of the Union Address   "['Fellow Citizen…
 7 George Washington  1795 Seventh State of the Union Address "['Fellow Citizen…
 8 George Washington  1796 Eighth State of the Union Address  "['Fellow Citizen…
 9 by John Adams      1797 First State of the Union Address   "['I was for some…
10 by John Adams      1798 Second State of the Union Address  "['Gentlemen of t…
# ℹ 209 more rows

We can use the functions we are already familiar with to continue exploring the data. We can see for instance that two speeches were delivered in 1790 (there is only one speech each year from then on), something we will need to take into account later.

speeches |>
  count(Year)

# A tibble: 216 × 2
    Year     n
   <dbl> <int>
 1  1790     2
 2  1791     1
 3  1792     1
 4  1793     1
 5  1794     1
 6  1795     1
 7  1796     1
 8  1797     1
 9  1798     1
10  1799     1
# ℹ 206 more rows

Looking at the column President (and sorting it out by those with higher counts) indicates that

speeches |> 
  count(President, sort = TRUE)

# A tibble: 41 × 2
   President                     n
   <chr>                     <int>
 1 Franklin Delano Roosevelt    12
 2 Dwight D. Eisenhower          9
 3 Andrew Jackson                8
 4 Barack Obama                  8
 5 Bill Clinton                  8
 6 George W. Bush                8
 7 George Washington             8
 8 Grover Cleveland              8
 9 Harry S. Truman               8
10 James Monroe                  8
# ℹ 31 more rows
…
Word counts

One possibility is to look at the number of times a particular term is mentioned in the corpus (or a set of terms). Let’s for instance count how many times de words “woman” and “women” show up in the presidential speeches. The code below uses mutate() to create two new variables woman and women indicating how many times those terms appear in the column Text. The actual computation is performed by the function str_count() (from the tidytext package). R goes through the text in that column and search for the string of characters indicated there. Although this is a very simplistic way of searching for terms, it serves as an illustration. Given that we are interested in both terms simultaneously, we can aggregate this information by constructing another column (sum_wom) summing both columns. We modify the existing object using the operator <-.

speeches <- speeches |>
  mutate(woman = str_count(Text, "woman"),
         women = str_count(Text, "women"),
         sum_wom = woman + women)

Typing the name of the object shows the results. We have basically added columns indicating how many times those terms show up in each speech.

speeches

# A tibble: 219 × 7
   President          Year Title                       Text  woman women sum_wom
   <chr>             <dbl> <chr>                       <chr> <int> <int>   <int>
 1 George Washington  1790 First State of the Union A… "['I…     0     0       0
 2 George Washington  1790 Second State of the Union … "['F…     0     0       0
 3 George Washington  1791 Third State of the Union A… "['F…     0     0       0
 4 George Washington  1792 Fourth State of the Union … "['F…     0     0       0
 5 George Washington  1793 Fifth State of the Union A… "['F…     0     0       0
 6 George Washington  1794 Sixth State of the Union A… "['F…     0     0       0
 7 George Washington  1795 Seventh State of the Union… "['F…     0     1       1
 8 George Washington  1796 Eighth State of the Union … "['F…     0     0       0
 9 by John Adams      1797 First State of the Union A… "['I…     0     0       0
10 by John Adams      1798 Second State of the Union … "['G…     0     0       0
# ℹ 209 more rows
…
Top frequencies

Instead of searching for particular words (or set or words), we may want to adopt a more agnostic position and ask which words are most common in the speeches. This can be achieved by tokenizing the texts. This tool is actually used in many other applications, so it is important to see how it works.

Basically, tokenizing splits the text into individual words (it also removes all of the punctuation and converts everything into lowercase characters). This is achieved with the function unnest_tokens() (which is part of the tidytext package). Apart from the object that contains the corpus we are exploring, this command requires two arguments: the column we want to tokenise (Text) and the name of the new column that will contain all the tokens (words in this case but it is up to you).

data_token <- speeches |> 
  unnest_tokens(output = words, input = Text)

As evident below, this tool transform the original corpus into a new dataframe when each row refers to each token, while preserving the metadata associated to them (speech, president, year, etc.). In total, we have almost 1.8 million tokens in this corpus.

data_token

# A tibble: 1,766,436 × 8
   President          Year Title            woman women sum_wom word_count words
   <chr>             <dbl> <chr>            <int> <int>   <int>      <int> <chr>
 1 George Washington  1790 First State of …     0     0       0       1069 i    
 2 George Washington  1790 First State of …     0     0       0       1069 embr…
 3 George Washington  1790 First State of …     0     0       0       1069 with 
 4 George Washington  1790 First State of …     0     0       0       1069 great
 5 George Washington  1790 First State of …     0     0       0       1069 sati…
 6 George Washington  1790 First State of …     0     0       0       1069 the  
 7 George Washington  1790 First State of …     0     0       0       1069 oppo…
 8 George Washington  1790 First State of …     0     0       0       1069 which
 9 George Washington  1790 First State of …     0     0       0       1069 now  
10 George Washington  1790 First State of …     0     0       0       1069 pres…
# ℹ 1,766,426 more rows

Once the data is expressed in this way, the column words contain all tokens mentioned in the speeches. These categories are basically qualitative information and can therefore be treated with the same tools we learned in the previous session. For instance, we can simply count() the number of times each category (token) is mentioned. Sorting the results by those with the highest frequencies (sort = TRUE) immediately indicates which tokens are the most common.

data_token |> 
  count(words, sort = TRUE) %>% 
  print(n = 20)

# A tibble: 29,713 × 2
   words      n
   <chr>  <int>
 1 the   149869
 2 of     96455
 3 to     60068
 4 and    60026
 5 in     38369
 6 a      27709
 7 that   21490
 8 for    18917
 9 be     18541
10 is     16993
11 our    16933
12 it     14967
13 by     14793
14 which  12197
15 as     12081
16 this   12062
17 with   11816
18 have   11800
19 we     11781
20 i       9356
# ℹ 29,693 more rows

The problem with this approach is that the most common words have little meaning (at least in terms of illustrating which topics are mentioned). Luckily, there is a simple solution, namely to get rid of those words that are so common that we are not interested in them, known as stop words. In fact there is a list of stop words already built within the tidy environment. Calling this object helps clarifying what stop words actually are: articles, prepositions, etc. We are not covering it but not only are there different lists of stop words (and in many different languages), but you can also modify them (add/remove terms) or create your own list from scratch).

stop_words |>   
  print(n = 25)

# A tibble: 1,149 × 2
   word        lexicon
   <chr>       <chr>  
 1 a           SMART  
 2 a's         SMART  
 3 able        SMART  
 4 about       SMART  
 5 above       SMART  
 6 according   SMART  
 7 accordingly SMART  
 8 across      SMART  
 9 actually    SMART  
10 after       SMART  
11 afterwards  SMART  
12 again       SMART  
13 against     SMART  
14 ain't       SMART  
15 all         SMART  
16 allow       SMART  
17 allows      SMART  
18 almost      SMART  
19 alone       SMART  
20 along       SMART  
21 already     SMART  
22 also        SMART  
23 although    SMART  
24 always      SMART  
25 am          SMART  
# ℹ 1,124 more rows

The trick now is to take this list of stop words and use it to exclude those terms from the tokenised version of the presidential speeches. In order to do so, we take the corpus and use anti_join() to drop the terms that match with the list of stop words. Note that the argument by defines which fields contain the terms to be matched (word in the object data_toke and words in the object stop_words).

data_token <- data_token |>
  anti_join(stop_words, by = c("words" = "word"))
data_token

# A tibble: 696,002 × 8
   President          Year Title            woman women sum_wom word_count words
   <chr>             <dbl> <chr>            <int> <int>   <int>      <int> <chr>
 1 George Washington  1790 First State of …     0     0       0       1069 embr…
 2 George Washington  1790 First State of …     0     0       0       1069 sati…
 3 George Washington  1790 First State of …     0     0       0       1069 oppo…
 4 George Washington  1790 First State of …     0     0       0       1069 cong…
 5 George Washington  1790 First State of …     0     0       0       1069 favo…
 6 George Washington  1790 First State of …     0     0       0       1069 pros…
 7 George Washington  1790 First State of …     0     0       0       1069 publ…
 8 George Washington  1790 First State of …     0     0       0       1069 affa…
 9 George Washington  1790 First State of …     0     0       0       1069 rece…
10 George Washington  1790 First State of …     0     0       0       1069 acce…
# ℹ 695,992 more rows

The resulting object no longer contains those stop words. We can now proceed counting these categories again. The most common terms are now much more informative.

data_token |> 
  count(words, sort = TRUE) |>  
  print(n = 20)

# A tibble: 29,031 × 2
   words          n
   <chr>      <int>
 1 government  6830
 2 congress    5083
 3 united      4784
 4 people      3884
 5 country     3374
 6 public      3000
 7 time        2820
 8 war         2732
 9 american    2640
10 world       2307
11 law         2124
12 national    2122
13 power       1938
14 act         1860
15 nation      1831
16 peace       1796
17 nations     1782
18 citizens    1780
19 service     1742
20 system      1650
# ℹ 29,011 more rows
…
Likewise, instead of splitting the corpus into 1-gram tokens, tokenising may involve creating multiple-word tokens: 2-grams, 3-grams, etc. As above, the code below uses unnest_tokens() again but it now indicates that we want 2-gram tokens (n = 2). The output shows how the corpus has not been split into.

data_token2 <- speeches |>
  unnest_tokens(twogram, Text, token = "ngrams", n = 2)
data_token2

# A tibble: 1,766,217 × 8
   President          Year Title          woman women sum_wom word_count twogram
   <chr>             <dbl> <chr>          <int> <int>   <int>      <int> <chr>  
 1 George Washington  1790 First State o…     0     0       0       1069 i embr…
 2 George Washington  1790 First State o…     0     0       0       1069 embrac…
 3 George Washington  1790 First State o…     0     0       0       1069 with g…
 4 George Washington  1790 First State o…     0     0       0       1069 great …
 5 George Washington  1790 First State o…     0     0       0       1069 satisf…
 6 George Washington  1790 First State o…     0     0       0       1069 the op…
 7 George Washington  1790 First State o…     0     0       0       1069 opport…
 8 George Washington  1790 First State o…     0     0       0       1069 which …
 9 George Washington  1790 First State o…     0     0       0       1069 now pr…
10 George Washington  1790 First State o…     0     0       0       1069 presen…
# ℹ 1,766,207 more rows

This type of multiple-word tokens are very useful to identify the terms that are mentioned accompanying particular words. Imagine, for instance, that we are not only interested in how many times the word “women” is mentioned, but also in which context. The code below implements such analysis.

women <- data_token2 |> 
  separate_wider_delim(cols = twogram, delim = " ", 
                       names = c("g1", "g2")) |>
  filter(g1 == "women" | g2 == "women") |>
  pivot_longer(g1:g2) |>
  select(!name) |>
  rename(words = value) |>
  filter(words!="women") |>
  anti_join(stop_words, by = c("words" = "word")) 
women

# A tibble: 84 × 8
   President          Year Title            woman women sum_wom word_count words
   <chr>             <dbl> <chr>            <int> <int>   <int>      <int> <chr>
 1 George Washington  1795 Seventh State o…     0     1       1       1988 inno…
 2 Ulysses S. Grant   1873 Fifth State of …     0     1       1      10064 amer…
 3 Ulysses S. Grant   1873 Fifth State of …     0     1       1      10064 marr…
 4 Ulysses S. Grant   1874 Sixth State of …     0     2       2       9788 chin…
 5 Ulysses S. Grant   1874 Sixth State of …     0     2       2       9788 amer…
 6 Ulysses S. Grant   1875 Seventh State o…     0     3       3      12324 amer…
 7 Ulysses S. Grant   1875 Seventh State o…     0     3       3      12324 chin…
 8 Ulysses S. Grant   1876 Eighth State of…     0     1       1       6860 amer…
 9 Grover Cleveland   1888 Fourth State of…     0     1       1      13200 170  
10 Grover Cleveland   1888 Fourth State of…     0     1       1      13200 70   
# ℹ 74 more rows

women |> 
  count(words, sort=TRUE)

# A tibble: 65 × 2
   words          n
   <chr>      <int>
 1 pregnant       7
 2 american       6
 3 serving        4
 4 act            2
 5 chinese        2
 6 indian         2
 7 infants        2
 8 minorities     2
 9 11             1
10 170            1
# ℹ 55 more rows
…
